@startuml

title __REQUEST's Class Diagram__\n

  namespace  {
    namespace om.gfi {
      namespace message.request {
        class com.gfi.message.request.LoginForm {
            - password : String
            - username : String
            + getPassword()
            + getUsername()
            + setPassword()
            + setUsername()
        }
      }
    }
  }
  

  namespace  {
    namespace om.gfi {
      namespace message.request {
        class com.gfi.message.request.SignUpForm {
            - email : String
            - name : String
            - password : String
            - roles : Set<String>
            - username : String
            + getEmail()
            + getName()
            + getPassword()
            + getRoles()
            + getUsername()
            + setEmail()
            + setName()
            + setPassword()
            + setRoles()
            + setUsername()
            + toString()
        }
      }
    }
  }
  



right footer


PlantUML diagram generated by SketchIt! (https://bitbucket.org/pmesmeur/sketch.it)
For more information about this tool, please contact philippe.mesmeur@gmail.com
endfooter

@enduml
