@startuml

title __UTILS's Class Diagram__\n

  namespace  {
    namespace om.gfi {
      namespace utils {
        class com.gfi.utils.ResponseMessagesUtils {
            {static} + ALLREPERTOIRE_SUCCESS_MESSAGE : String
        }
      }
    }
  }
  



right footer


PlantUML diagram generated by SketchIt! (https://bitbucket.org/pmesmeur/sketch.it)
For more information about this tool, please contact philippe.mesmeur@gmail.com
endfooter

@enduml
